<?xml version="1.0" encoding="UTF-8" standalone="no"?>
<!-- Created with Inkscape (http://www.inkscape.org/) -->

<svg
   xmlns:dc="http://purl.org/dc/elements/1.1/"
   xmlns:cc="http://creativecommons.org/ns#"
   xmlns:rdf="http://www.w3.org/1999/02/22-rdf-syntax-ns#"
   xmlns:svg="http://www.w3.org/2000/svg"
   xmlns="http://www.w3.org/2000/svg"
   xmlns:xlink="http://www.w3.org/1999/xlink"
   xmlns:sodipodi="http://sodipodi.sourceforge.net/DTD/sodipodi-0.dtd"
   xmlns:inkscape="http://www.inkscape.org/namespaces/inkscape"
   width="744.09448819"
   height="1052.3622047"
   id="svg2"
   version="1.1"
   inkscape:version="0.48.1 r9760"
   sodipodi:docname="images1.svg">
  <defs
     id="defs4">
    <linearGradient
       inkscape:collect="always"
       id="linearGradient4061">
      <stop
         style="stop-color:#8e8e8e;stop-opacity:1;"
         offset="0"
         id="stop4063" />
      <stop
         style="stop-color:#8e8e8e;stop-opacity:0;"
         offset="1"
         id="stop4065" />
    </linearGradient>
    <linearGradient
       inkscape:collect="always"
       id="linearGradient4053">
      <stop
         style="stop-color:#8e8e8e;stop-opacity:1;"
         offset="0"
         id="stop4055" />
      <stop
         style="stop-color:#8e8e8e;stop-opacity:0;"
         offset="1"
         id="stop4057" />
    </linearGradient>
    <linearGradient
       id="linearGradient3942">
      <stop
         style="stop-color:#3c3c3c;stop-opacity:1;"
         offset="0"
         id="stop3944" />
      <stop
         id="stop3958"
         offset="0.33333334"
         style="stop-color:#484848;stop-opacity:1;" />
      <stop
         id="stop3956"
         offset="0.5"
         style="stop-color:#656565;stop-opacity:1;" />
      <stop
         id="stop3954"
         offset="0.5"
         style="stop-color:#070707;stop-opacity:1;" />
      <stop
         style="stop-color:#171717;stop-opacity:1;"
         offset="0.66666669"
         id="stop3960" />
      <stop
         style="stop-color:#282828;stop-opacity:1;"
         offset="1"
         id="stop3946" />
    </linearGradient>
    <linearGradient
       inkscape:collect="always"
       id="linearGradient3795">
      <stop
         style="stop-color:#3f6475;stop-opacity:1;"
         offset="0"
         id="stop3797" />
      <stop
         style="stop-color:#3f6475;stop-opacity:0.502"
         offset="1"
         id="stop3799" />
    </linearGradient>
    <linearGradient
       inkscape:collect="always"
       id="linearGradient3787">
      <stop
         style="stop-color:#3f6475;stop-opacity:1;"
         offset="0"
         id="stop3789" />
      <stop
         style="stop-color:#3f6475;stop-opacity:0.502"
         offset="1"
         id="stop3791" />
    </linearGradient>
    <linearGradient
       inkscape:collect="always"
       id="linearGradient3779">
      <stop
         style="stop-color:#5a5a5a;stop-opacity:1;"
         offset="0"
         id="stop3781" />
      <stop
         style="stop-color:#7d7d7d;stop-opacity:1"
         offset="1"
         id="stop3783" />
    </linearGradient>
    <linearGradient
       inkscape:collect="always"
       id="linearGradient3771">
      <stop
         style="stop-color:#8c8c8c;stop-opacity:1;"
         offset="0"
         id="stop3773" />
      <stop
         style="stop-color:#505050;stop-opacity:1"
         offset="1"
         id="stop3775" />
    </linearGradient>
    <linearGradient
       inkscape:collect="always"
       xlink:href="#linearGradient3771"
       id="linearGradient3777"
       x1="21"
       y1="1037.3622"
       x2="19"
       y2="1037.3622"
       gradientUnits="userSpaceOnUse" />
    <linearGradient
       inkscape:collect="always"
       xlink:href="#linearGradient3779"
       id="linearGradient3785"
       x1="27"
       y1="1037.3622"
       x2="29"
       y2="1037.3622"
       gradientUnits="userSpaceOnUse" />
    <linearGradient
       inkscape:collect="always"
       xlink:href="#linearGradient3787"
       id="linearGradient3793"
       x1="8"
       y1="1038.3622"
       x2="9"
       y2="1038.3622"
       gradientUnits="userSpaceOnUse"
       gradientTransform="translate(0,-3.4765626e-5)" />
    <linearGradient
       inkscape:collect="always"
       xlink:href="#linearGradient3795"
       id="linearGradient3801"
       x1="39"
       y1="1038.3622"
       x2="40"
       y2="1038.3622"
       gradientUnits="userSpaceOnUse"
       gradientTransform="translate(0,-3.4765626e-5)" />
    <linearGradient
       inkscape:collect="always"
       xlink:href="#linearGradient3942"
       id="linearGradient3952"
       x1="48"
       y1="1023.6122"
       x2="96"
       y2="1023.6122"
       gradientUnits="userSpaceOnUse" />
    <linearGradient
       inkscape:collect="always"
       xlink:href="#linearGradient3795"
       id="linearGradient4036"
       gradientUnits="userSpaceOnUse"
       gradientTransform="translate(80,-40.000035)"
       x1="39"
       y1="1038.3622"
       x2="40"
       y2="1038.3622" />
    <linearGradient
       inkscape:collect="always"
       xlink:href="#linearGradient3787"
       id="linearGradient4040"
       gradientUnits="userSpaceOnUse"
       gradientTransform="translate(80,-40.000035)"
       x1="8"
       y1="1038.3622"
       x2="9"
       y2="1038.3622" />
    <linearGradient
       inkscape:collect="always"
       xlink:href="#linearGradient3779"
       id="linearGradient4044"
       gradientUnits="userSpaceOnUse"
       x1="27"
       y1="1037.3622"
       x2="29"
       y2="1037.3622"
       gradientTransform="translate(80,-40)" />
    <linearGradient
       inkscape:collect="always"
       xlink:href="#linearGradient3771"
       id="linearGradient4047"
       gradientUnits="userSpaceOnUse"
       x1="21"
       y1="1037.3622"
       x2="19"
       y2="1037.3622"
       gradientTransform="translate(80,-40)" />
    <linearGradient
       inkscape:collect="always"
       xlink:href="#linearGradient4053"
       id="linearGradient4059"
       x1="56"
       y1="1031.3622"
       x2="59"
       y2="1031.3622"
       gradientUnits="userSpaceOnUse" />
    <linearGradient
       inkscape:collect="always"
       xlink:href="#linearGradient4061"
       id="linearGradient4067"
       x1="85"
       y1="1031.3622"
       x2="88"
       y2="1031.3622"
       gradientUnits="userSpaceOnUse" />
    <linearGradient
       inkscape:collect="always"
       xlink:href="#linearGradient4061"
       id="linearGradient4105"
       gradientUnits="userSpaceOnUse"
       x1="85"
       y1="1031.3622"
       x2="88"
       y2="1031.3622"
       gradientTransform="matrix(1,0,0,-1,0,1987.7244)" />
    <linearGradient
       inkscape:collect="always"
       xlink:href="#linearGradient4053"
       id="linearGradient4107"
       gradientUnits="userSpaceOnUse"
       x1="56"
       y1="1031.3622"
       x2="59"
       y2="1031.3622"
       gradientTransform="matrix(1,0,0,-1,0,1987.7244)" />
    <linearGradient
       inkscape:collect="always"
       xlink:href="#linearGradient3942"
       id="linearGradient4109"
       gradientUnits="userSpaceOnUse"
       x1="48"
       y1="1023.6122"
       x2="96"
       y2="1023.6122"
       gradientTransform="matrix(1,0,0,-1,0,1987.7244)" />
  </defs>
  <sodipodi:namedview
     id="base"
     pagecolor="#000000"
     bordercolor="#666666"
     borderopacity="1.0"
     inkscape:pageopacity="0"
     inkscape:pageshadow="2"
     inkscape:zoom="1"
     inkscape:cx="64.833493"
     inkscape:cy="109.32293"
     inkscape:document-units="px"
     inkscape:current-layer="layer1"
     showgrid="false"
     inkscape:window-width="1362"
     inkscape:window-height="718"
     inkscape:window-x="0"
     inkscape:window-y="0"
     inkscape:window-maximized="0">
    <inkscape:grid
       type="xygrid"
       id="grid2985"
       empspacing="4"
       dotted="true"
       visible="true"
       enabled="true"
       snapvisiblegridlinesonly="true" />
  </sodipodi:namedview>
  <metadata
     id="metadata7">
    <rdf:RDF>
      <cc:Work
         rdf:about="">
        <dc:format>image/svg+xml</dc:format>
        <dc:type
           rdf:resource="http://purl.org/dc/dcmitype/StillImage" />
        <dc:title></dc:title>
      </cc:Work>
    </rdf:RDF>
  </metadata>
  <g
     inkscape:label="Layer 1"
     inkscape:groupmode="layer"
     id="layer1">
    <path
       sodipodi:nodetypes="ccccccc"
       inkscape:connector-curvature="0"
       id="path3970"
       d="m 94,1026.3622 0,-2 -1,-3 -1,0 -1,3 0,5 z"
       style="fill:#000000;fill-opacity:1;stroke:none" />
    <path
       sodipodi:nodetypes="ccccccc"
       style="fill:#000000;fill-opacity:1;stroke:none"
       d="m 89,1035.3622 0,-7 -2,-4 -1,0 -2,4 0,10 z"
       id="path3972"
       inkscape:connector-curvature="0" />
    <path
       style="fill:#8e8e8e;fill-opacity:1;stroke:none"
       d="m 93,1027.3622 0,-3 -0.507812,-2 -0.492188,2 0,4 z"
       id="path3974"
       inkscape:connector-curvature="0"
       sodipodi:nodetypes="cccccc" />
    <path
       sodipodi:nodetypes="cccccc"
       inkscape:connector-curvature="0"
       id="path3976"
       d="m 88,1036.3622 0,-8 -1.507812,-3 -1.492188,3 0,9 z"
       style="fill:url(#linearGradient4067);fill-opacity:1;stroke:none" />
    <path
       style="fill:#000000;fill-opacity:1;stroke:none"
       d="m 50,1026.3622 0,-2 1,-3 1,0 1,3 0,5 z"
       id="path3962"
       inkscape:connector-curvature="0"
       sodipodi:nodetypes="ccccccc" />
    <path
       inkscape:connector-curvature="0"
       id="path3964"
       d="m 55,1035.3622 0,-7 2,-4 1,0 2,4 0,10 z"
       style="fill:#000000;fill-opacity:1;stroke:none"
       sodipodi:nodetypes="ccccccc" />
    <path
       sodipodi:nodetypes="cccccc"
       inkscape:connector-curvature="0"
       id="path3966"
       d="m 51,1027.3622 0,-3 0.507812,-2 0.492188,2 0,4 z"
       style="fill:#8e8e8e;fill-opacity:1;stroke:none" />
    <path
       style="fill:url(#linearGradient4059);fill-opacity:1;stroke:none"
       d="m 56,1036.3622 0,-8 1.507812,-3 1.492188,3 0,9 z"
       id="path3968"
       inkscape:connector-curvature="0"
       sodipodi:nodetypes="cccccc" />
    <path
       style="fill:#000000;fill-opacity:1;stroke:none"
       d="m 67,999.36218 c 0,3.00002 -4,9.00002 -4,9.00002 0,0 5,18 -1,25 -4,2 -13,-9 -15,-12 0,2 0,16 0,16 0,0 13,12 16,12 l 18,0 c 3,0 16,-12 16,-12 l 0,-16 c -2,3 -11,14 -15,12 -6,-7 -1,-25 -1,-25 0,0 -4,-6 -4,-9.00002 -2,-2 -8,-2 -10,0 z"
       id="path3932"
       inkscape:connector-curvature="0"
       sodipodi:nodetypes="ccccccccccccc" />
    <path
       inkscape:connector-curvature="0"
       id="path3874"
       d="m 11,967.375 0,9 7,0 0,-9 z m 1,2.9872 5,0 0,5.0128 -5,0 z"
       style="fill:#000000;fill-opacity:1;stroke:none"
       sodipodi:nodetypes="cccccccccc" />
    <path
       inkscape:connector-curvature="0"
       id="path3876"
       d="m 16,968.3622 1,0 0,7 -1,0 z"
       style="fill:#505050;fill-opacity:1;stroke:none"
       sodipodi:nodetypes="ccccc" />
    <path
       sodipodi:nodetypes="ccccc"
       style="fill:#8c8c8c;fill-opacity:1;stroke:none"
       d="m 12,968.3622 1,0 0,7 -1,0 z"
       id="path3878"
       inkscape:connector-curvature="0" />
    <g
       id="g3880"
       inkscape:export-filename="/home/whitelynx/devel/ld20/images/ships/player.png"
       inkscape:export-xdpi="90"
       inkscape:export-ydpi="90">
      <path
         sodipodi:nodetypes="ccccccc"
         inkscape:connector-curvature="0"
         id="path3813"
         d="m 24,1007.3622 c 0,0 6,8 6,13 0,4 -3.000007,16 -2,18 1,1 11,-5 11,-5 l 0,8 c -2,0 -11,6 -11,9 l -4,0"
         style="fill:#000000;fill-opacity:1;stroke:none" />
      <path
         style="fill:#000000;fill-opacity:1;stroke:none"
         d="m 24,1007.3622 c 0,0 -6,8 -6,13 0,4 3.000007,16 2,18 -1,1 -11,-5 -11,-5 l 0,8 c 2,0 11,6 11,9 l 4,0"
         id="path3811"
         inkscape:connector-curvature="0"
         sodipodi:nodetypes="ccccccc" />
      <path
         sodipodi:nodetypes="ccccc"
         style="fill:#000000;fill-opacity:1;stroke:none"
         d="m 41,1030.3622 -3,1 0,15 3,-1 z"
         id="path3809"
         inkscape:connector-curvature="0" />
      <path
         inkscape:connector-curvature="0"
         id="path3805"
         d="m 7,1030.3622 3,1 0,15 -3,-1 z"
         style="fill:#000000;fill-opacity:1;stroke:none"
         sodipodi:nodetypes="ccccc" />
      <path
         sodipodi:nodetypes="csscccc"
         inkscape:connector-curvature="0"
         id="path2987"
         d="m 24,1008.3622 c 0,0 -5,8 -5,12 0,4 3,17 2,19 -1,2 -12,-5 -12,-5 l 0,6 c 2,0 12,7 12,9 l 3,0"
         style="fill:url(#linearGradient3777);fill-opacity:1;stroke:none" />
      <path
         style="fill:url(#linearGradient3785);fill-opacity:1;stroke:none"
         d="m 24,1008.3622 c 0,0 5,8 5,12 0,4 -3,17 -2,19 1,2 12,-5 12,-5 l 0,6 c -2,0 -12,7 -12,9 l -3,0"
         id="path3759"
         inkscape:connector-curvature="0"
         sodipodi:nodetypes="csscccc" />
      <path
         sodipodi:nodetypes="ccccc"
         style="fill:#000000;fill-opacity:1;stroke:none;opacity:0.75"
         d="m 7,1030.3622 3,1 0,15 -3,-1 z"
         id="path3803"
         inkscape:connector-curvature="0" />
      <path
         inkscape:connector-curvature="0"
         id="path3761"
         d="m 8,1031.3622 1,1 0,13 -1,-1 z"
         style="fill:url(#linearGradient3793);fill-opacity:1;stroke:none" />
      <path
         inkscape:connector-curvature="0"
         id="path3807"
         d="m 41,1030.3622 -3,1 0,15 3,-1 z"
         style="opacity:0.75;fill:#000000;fill-opacity:1;stroke:none"
         sodipodi:nodetypes="ccccc" />
      <path
         style="fill:url(#linearGradient3801);fill-opacity:1;stroke:none"
         d="m 40,1031.3622 -1,1 0,13 1,-1 z"
         id="path3763"
         inkscape:connector-curvature="0" />
      <path
         sodipodi:nodetypes="cccc"
         inkscape:connector-curvature="0"
         id="path3765"
         d="m 24,1014.3622 c -2,0 -4,6 -3,7 0,0 1,-3 3,-3 z"
         style="fill:#922222;fill-opacity:1;stroke:none" />
      <path
         style="fill:#740e0e;fill-opacity:1;stroke:none"
         d="m 24,1014.3622 c 2,0 4,6 3,7 0,0 -1,-3 -3,-3 z"
         id="path3767"
         inkscape:connector-curvature="0"
         sodipodi:nodetypes="cccc" />
      <path
         sodipodi:nodetypes="ccc"
         inkscape:connector-curvature="0"
         id="path3769"
         d="m 24,1015.3622 c -2,-1 -3,5 -3,5 0,0 1,-3 3,-5 z"
         style="fill:#de9191;fill-opacity:1;stroke:none" />
      <path
         sodipodi:nodetypes="ccccccccc"
         inkscape:connector-curvature="0"
         id="path3815"
         d="m 26,1028.3622 -2,-2 -2,2 0,13 1,-1 0,-11 1,-2 1,2 z"
         style="opacity:0.5;fill:#ffffff;fill-opacity:1;stroke:none" />
      <path
         inkscape:connector-curvature="0"
         id="path3817"
         d="m 25,1029.3622 1,-1 0,13 -4,0 1,-1 2,0 z"
         style="fill:#000000;stroke:none;stroke-width:1px;stroke-linecap:butt;stroke-linejoin:miter;stroke-opacity:1;fill-opacity:1;opacity:0.3" />
      <path
         style="opacity:0.5;fill:#ffffff;fill-opacity:1;stroke:none"
         d="m 24,1042.3622 -4,0 0,5 1,2 1,-1 -1,-1 0,-4 2,0 z"
         id="path3819"
         inkscape:connector-curvature="0"
         sodipodi:nodetypes="ccccccccc" />
      <path
         sodipodi:nodetypes="ccccccc"
         style="opacity:0.3;fill:#000000;fill-opacity:1;stroke:none"
         d="m 23,1043.3622 1,-1 0,7 -3,0 1,-1 1,0 z"
         id="path3821"
         inkscape:connector-curvature="0" />
      <path
         inkscape:connector-curvature="0"
         id="path3823"
         d="m 27,1043.3622 1,-1 0,5 -1,2 -3,0 1,-1 1,0 1,-1 z"
         style="opacity:0.3;fill:#000000;fill-opacity:1;stroke:none"
         sodipodi:nodetypes="ccccccccc" />
      <path
         sodipodi:nodetypes="ccccccc"
         inkscape:connector-curvature="0"
         id="path3825"
         d="m 28,1042.3622 -4,0 0,7 1,-1 0,-5 2,0 z"
         style="opacity:0.5;fill:#ffffff;fill-opacity:1;stroke:none" />
    </g>
    <path
       style="fill:#000000;fill-opacity:1;stroke:none"
       d="m 11,977.375 0,9 7,0 0,-9 z m 1,2.9872 5,0 0,5.0128 -5,0 z"
       id="path3827"
       inkscape:connector-curvature="0"
       sodipodi:nodetypes="cccccccccc" />
    <path
       style="fill:#000000;fill-opacity:1;stroke:none"
       d="m 13,980.3622 0,11 3,0 0,-11 z m 1,1 1,0 0,1 -1,0 z"
       id="path3839"
       inkscape:connector-curvature="0"
       sodipodi:nodetypes="cccccccccc" />
    <path
       sodipodi:nodetypes="cccccccccc"
       inkscape:connector-curvature="0"
       id="path3872"
       d="m 13,970.3622 0,11 3,0 0,-11 z m 1,1 1,0 0,1 -1,0 z"
       style="fill:#000000;fill-opacity:1;stroke:none" />
    <g
       id="g3903"
       inkscape:export-filename="/home/whitelynx/devel/ld20/images/weapons/chain.png"
       inkscape:export-xdpi="90"
       inkscape:export-ydpi="90"
       transform="translate(-40,-60)">
      <rect
         y="1031.3622"
         x="51"
         height="10"
         width="7"
         id="rect3901"
         style="opacity:0;color:#000000;fill:#505050;fill-opacity:1;fill-rule:nonzero;stroke:none;stroke-width:1;marker:none;visibility:visible;display:inline;overflow:visible;enable-background:accumulate" />
      <path
         sodipodi:nodetypes="ccccc"
         style="fill:#aeaeae;fill-opacity:1;stroke:none"
         d="m 54,1033.3622 1,0 0,7 -1,0 z"
         id="path3835"
         inkscape:connector-curvature="0" />
    </g>
    <path
       sodipodi:nodetypes="ccccc"
       style="fill:#aeaeae;fill-opacity:1;stroke:none"
       d="m 14,983.3622 1,0 0,7 -1,0 z"
       id="path3865"
       inkscape:connector-curvature="0" />
    <path
       sodipodi:nodetypes="ccccc"
       style="fill:#505050;fill-opacity:1;stroke:none"
       d="m 16,978.3622 1,0 0,7 -1,0 z"
       id="path3867"
       inkscape:connector-curvature="0" />
    <path
       inkscape:connector-curvature="0"
       id="path3869"
       d="m 12,978.3622 1,0 0,7 -1,0 z"
       style="fill:#8c8c8c;fill-opacity:1;stroke:none"
       sodipodi:nodetypes="ccccc" />
    <path
       style="fill:url(#linearGradient3952);stroke:none;stroke-width:1px;stroke-linecap:butt;stroke-linejoin:miter;stroke-opacity:1;fill-opacity:1"
       d="m 48,1036.3622 c 0,0 12,12 16,12 4,0 12,0 16,0 4,0 16,-12 16,-12 l 0,-12 c 0,0 -12,16 -16,8 -4,-8 0,-24 0,-24 0,0 -3,-4 -4,-8 -2,-2.00002 -6,-2.00002 -8,0 -1,4 -4,8 -4,8 0,0 4,16 0,24 -3.999993,8 -16,-8 -16,-8 z"
       id="path3926"
       inkscape:connector-curvature="0"
       sodipodi:nodetypes="cssccsccccscc" />
    <path
       style="opacity:0.5;fill:#000000;fill-opacity:1;stroke:none"
       d="m 69,1001.3622 -5,11 8,-7 8,7 -5,-11 z"
       id="path3938"
       inkscape:connector-curvature="0"
       sodipodi:nodetypes="cccccc" />
    <path
       style="fill:#cd0000;stroke:none;stroke-width:1px;stroke-linecap:butt;stroke-linejoin:miter;stroke-opacity:1;fill-opacity:1"
       d="m 70,1002.3622 -4,7 5,-5 2,0 5,5 -4,-7 z"
       id="path3936"
       inkscape:connector-curvature="0" />
    <path
       sodipodi:nodetypes="ccccccccc"
       inkscape:connector-curvature="0"
       id="path4006"
       d="m 74,1016.3622 -2,-2 -2,2 0,32 1,-1 0,-30 1,-2 1,2 z"
       style="opacity:0.3;fill:#000000;fill-opacity:1;stroke:none" />
    <path
       inkscape:connector-curvature="0"
       id="path4008"
       d="m 73,1017.3622 1,-1 0,32 -4,0 1,-1 2,0 z"
       style="opacity:0.2;fill:#ffffff;fill-opacity:1;stroke:none"
       sodipodi:nodetypes="ccccccc" />
    <path
       style="opacity:0.5;fill:#ffffff;fill-opacity:1;stroke:none"
       d="m 70,1032.3622 -8,8 0,6 1,2 1,-1 -1,-1 0,-5 6,-6 z"
       id="path4010"
       inkscape:connector-curvature="0"
       sodipodi:nodetypes="ccccccccc" />
    <path
       sodipodi:nodetypes="ccccccc"
       style="opacity:0.3;fill:#000000;fill-opacity:1;stroke:none"
       d="m 69,1035.3622 1,-3 0,16 -7,0 1,-1 5,0 z"
       id="path4012"
       inkscape:connector-curvature="0" />
    <path
       inkscape:connector-curvature="0"
       id="path4014"
       d="m 81,1041.3622 1,-1 0,6 -1,2 -7,0 1,-1 5,0 1,-1 z"
       style="opacity:0.3;fill:#000000;fill-opacity:1;stroke:none"
       sodipodi:nodetypes="ccccccccc" />
    <path
       sodipodi:nodetypes="ccccccc"
       inkscape:connector-curvature="0"
       id="path4016"
       d="m 82,1040.3622 -8,-8 0,16 1,-1 0,-12 6,6 z"
       style="opacity:0.5;fill:#ffffff;fill-opacity:1;stroke:none" />
    <g
       id="g4111"
       inkscape:export-filename="/home/whitelynx/devel/ld20/images/ships/enemy.png"
       inkscape:export-xdpi="90"
       inkscape:export-ydpi="90">
      <path
         sodipodi:nodetypes="ccccccc"
         inkscape:connector-curvature="0"
         id="path4069"
         d="m 94,961.36218 0,2 -1,3 -1,0 -1,-3 0,-5 z"
         style="fill:#000000;fill-opacity:1;stroke:none" />
      <path
         sodipodi:nodetypes="ccccccc"
         style="fill:#000000;fill-opacity:1;stroke:none"
         d="m 89,952.36218 0,7 -2,4 -1,0 -2,-4 0,-10 z"
         id="path4071"
         inkscape:connector-curvature="0" />
      <path
         style="fill:#8e8e8e;fill-opacity:1;stroke:none"
         d="m 93,960.36218 0,3 -0.507812,2 -0.492188,-2 0,-4 z"
         id="path4073"
         inkscape:connector-curvature="0"
         sodipodi:nodetypes="cccccc" />
      <path
         sodipodi:nodetypes="cccccc"
         inkscape:connector-curvature="0"
         id="path4075"
         d="m 88,951.36218 0,8 -1.507812,3 -1.492188,-3 0,-9 z"
         style="fill:url(#linearGradient4105);fill-opacity:1;stroke:none" />
      <path
         style="fill:#000000;fill-opacity:1;stroke:none"
         d="m 50,961.36218 0,2 1,3 1,0 1,-3 0,-5 z"
         id="path4077"
         inkscape:connector-curvature="0"
         sodipodi:nodetypes="ccccccc" />
      <path
         inkscape:connector-curvature="0"
         id="path4079"
         d="m 55,952.36218 0,7 2,4 1,0 2,-4 0,-10 z"
         style="fill:#000000;fill-opacity:1;stroke:none"
         sodipodi:nodetypes="ccccccc" />
      <path
         sodipodi:nodetypes="cccccc"
         inkscape:connector-curvature="0"
         id="path4081"
         d="m 51,960.36218 0,3 0.507812,2 0.492188,-2 0,-4 z"
         style="fill:#8e8e8e;fill-opacity:1;stroke:none" />
      <path
         style="fill:url(#linearGradient4107);fill-opacity:1;stroke:none"
         d="m 56,951.36218 0,8 1.507812,3 1.492188,-3 0,-9 z"
         id="path4083"
         inkscape:connector-curvature="0"
         sodipodi:nodetypes="cccccc" />
      <path
         style="fill:#000000;fill-opacity:1;stroke:none"
         d="m 67,988.3622 c 0,-3.00002 -4,-9.00002 -4,-9.00002 0,0 5,-18 -1,-25 -4,-2 -13,9 -15,12 0,-2 0,-16 0,-16 0,0 13,-12 16,-12 l 18,0 c 3,0 16,12 16,12 l 0,16 c -2,-3 -11,-14 -15,-12 -6,7 -1,25 -1,25 0,0 -4,6 -4,9.00002 -2,2 -8,2 -10,0 z"
         id="path4085"
         inkscape:connector-curvature="0"
         sodipodi:nodetypes="ccccccccccccc" />
      <path
         style="fill:url(#linearGradient4109);fill-opacity:1;stroke:none"
         d="m 48,951.36218 c 0,0 12,-12 16,-12 4,0 12,0 16,0 4,0 16,12 16,12 l 0,12 c 0,0 -12,-16 -16,-8 -4,8 0,24 0,24 0,0 -3,4 -4,8 -2,2.00002 -6,2.00002 -8,0 -1,-4 -4,-8 -4,-8 0,0 4,-16 0,-24 -3.999993,-8 -16,8 -16,8 z"
         id="path4087"
         inkscape:connector-curvature="0"
         sodipodi:nodetypes="cssccsccccscc" />
      <path
         style="opacity:0.5;fill:#000000;fill-opacity:1;stroke:none"
         d="m 69,986.36218 -5,-11 8,7 8,-7 -5,11 z"
         id="path4089"
         inkscape:connector-curvature="0"
         sodipodi:nodetypes="cccccc" />
      <path
         style="fill:#cd0000;fill-opacity:1;stroke:none"
         d="m 70,985.36218 -4,-7 5,5 2,0 5,-5 -4,7 z"
         id="path4091"
         inkscape:connector-curvature="0" />
      <path
         sodipodi:nodetypes="ccccccccc"
         inkscape:connector-curvature="0"
         id="path4093"
         d="m 70,971.36218 2,2 2,-2 0,-32 -1,1 0,30 -1,2 -1,-2 z"
         style="opacity:0.2;fill:#ffffff;fill-opacity:1;stroke:none" />
      <path
         inkscape:connector-curvature="0"
         id="path4095"
         d="m 71,970.36218 -1,1 0,-32 4,0 -1,1 -2,0 z"
         style="opacity:0.3;fill:#000000;fill-opacity:1;stroke:none"
         sodipodi:nodetypes="ccccccc" />
      <path
         style="opacity:0.3;fill:#000000;fill-opacity:1;stroke:none"
         d="m 74,955.36218 8,-8 0,-6 -1,-2 -1,1 1,1 0,5 -6,6 z"
         id="path4097"
         inkscape:connector-curvature="0"
         sodipodi:nodetypes="ccccccccc" />
      <path
         sodipodi:nodetypes="ccccccc"
         style="opacity:0.5;fill:#ffffff;fill-opacity:1;stroke:none"
         d="m 75,952.36218 -1,3 0,-16 7,0 -1,1 -5,0 z"
         id="path4099"
         inkscape:connector-curvature="0" />
      <path
         inkscape:connector-curvature="0"
         id="path4101"
         d="m 63,946.36218 -1,1 0,-6 1,-2 7,0 -1,1 -5,0 -1,1 z"
         style="opacity:0.5;fill:#ffffff;fill-opacity:1;stroke:none"
         sodipodi:nodetypes="ccccccccc" />
      <path
         sodipodi:nodetypes="ccccccc"
         inkscape:connector-curvature="0"
         id="path4103"
         d="m 62,947.36218 8,8 0,-16 -1,1 0,12 -6,-6 z"
         style="opacity:0.3;fill:#000000;fill-opacity:1;stroke:none" />
    </g>
  </g>
</svg>
